p6/simulation/qsim/practica6.msim.vcd
$comment
	File created using the following command:
		vcd file practica6.msim.vcd -direction
$end
$date
	Tue Oct 08 21:21:44 2019
$end
$version
	ModelSim Version 10.5b
$end
$timescale
	1ps
$end

$scope module practica6_vhd_vec_tst $end
$var wire 1 ! clk $end
$var wire 1 " int $end
$var wire 1 # sal1 [3] $end
$var wire 1 $ sal1 [2] $end
$var wire 1 % sal1 [1] $end
$var wire 1 & sal1 [0] $end
$var wire 1 ' sal2 [4] $end
$var wire 1 ( sal2 [3] $end
$var wire 1 ) sal2 [2] $end
$var wire 1 * sal2 [1] $end
$var wire 1 + sal2 [0] $end
$var wire 1 , sw_in $end
$var wire 1 - sw_sal $end
$var wire 1 . sw_tr [1] $end
$var wire 1 / sw_tr [0] $end
$var wire 1 0 x $end
$var wire 1 1 y $end

$scope module i1 $end
$var wire 1 2 gnd $end
$var wire 1 3 vcc $end
$var wire 1 4 unknown $end
$var wire 1 5 devoe $end
$var wire 1 6 devclrn $end
$var wire 1 7 devpor $end
$var wire 1 8 ww_devoe $end
$var wire 1 9 ww_devclrn $end
$var wire 1 : ww_devpor $end
$var wire 1 ; ww_sal1 [3] $end
$var wire 1 < ww_sal1 [2] $end
$var wire 1 = ww_sal1 [1] $end
$var wire 1 > ww_sal1 [0] $end
$var wire 1 ? ww_sw_in $end
$var wire 1 @ ww_clk $end
$var wire 1 A ww_x $end
$var wire 1 B ww_y $end
$var wire 1 C ww_int $end
$var wire 1 D ww_sw_tr [1] $end
$var wire 1 E ww_sw_tr [0] $end
$var wire 1 F ww_sw_sal $end
$var wire 1 G ww_sal2 [4] $end
$var wire 1 H ww_sal2 [3] $end
$var wire 1 I ww_sal2 [2] $end
$var wire 1 J ww_sal2 [1] $end
$var wire 1 K ww_sal2 [0] $end
$var wire 1 L \~QUARTUS_CREATED_ADC1~_CHSEL_bus\ [4] $end
$var wire 1 M \~QUARTUS_CREATED_ADC1~_CHSEL_bus\ [3] $end
$var wire 1 N \~QUARTUS_CREATED_ADC1~_CHSEL_bus\ [2] $end
$var wire 1 O \~QUARTUS_CREATED_ADC1~_CHSEL_bus\ [1] $end
$var wire 1 P \~QUARTUS_CREATED_ADC1~_CHSEL_bus\ [0] $end
$var wire 1 Q \~QUARTUS_CREATED_ADC2~_CHSEL_bus\ [4] $end
$var wire 1 R \~QUARTUS_CREATED_ADC2~_CHSEL_bus\ [3] $end
$var wire 1 S \~QUARTUS_CREATED_ADC2~_CHSEL_bus\ [2] $end
$var wire 1 T \~QUARTUS_CREATED_ADC2~_CHSEL_bus\ [1] $end
$var wire 1 U \~QUARTUS_CREATED_ADC2~_CHSEL_bus\ [0] $end
$var wire 1 V \clk~inputclkctrl_INCLK_bus\ [3] $end
$var wire 1 W \clk~inputclkctrl_INCLK_bus\ [2] $end
$var wire 1 X \clk~inputclkctrl_INCLK_bus\ [1] $end
$var wire 1 Y \clk~inputclkctrl_INCLK_bus\ [0] $end
$var wire 1 Z \~QUARTUS_CREATED_GND~I_combout\ $end
$var wire 1 [ \~QUARTUS_CREATED_UNVM~~busy\ $end
$var wire 1 \ \~QUARTUS_CREATED_ADC1~~eoc\ $end
$var wire 1 ] \~QUARTUS_CREATED_ADC2~~eoc\ $end
$var wire 1 ^ \sal1[3]~output_o\ $end
$var wire 1 _ \sal1[2]~output_o\ $end
$var wire 1 ` \sal1[1]~output_o\ $end
$var wire 1 a \sal1[0]~output_o\ $end
$var wire 1 b \sal2[4]~output_o\ $end
$var wire 1 c \sal2[3]~output_o\ $end
$var wire 1 d \sal2[2]~output_o\ $end
$var wire 1 e \sal2[1]~output_o\ $end
$var wire 1 f \sal2[0]~output_o\ $end
$var wire 1 g \sw_tr[1]~input_o\ $end
$var wire 1 h \sw_tr[0]~input_o\ $end
$var wire 1 i \inst2|edoPresente[3]~14_combout\ $end
$var wire 1 j \sw_in~input_o\ $end
$var wire 1 k \x~input_o\ $end
$var wire 1 l \int~input_o\ $end
$var wire 1 m \y~input_o\ $end
$var wire 1 n \inst8|selector[0]~0_combout\ $end
$var wire 1 o \inst5|Mux8~0_combout\ $end
$var wire 1 p \clk~input_o\ $end
$var wire 1 q \clk~inputclkctrl_outclk\ $end
$var wire 1 r \inst2|edoPresente[0]~8_combout\ $end
$var wire 1 s \inst2|edoPresente[0]~5_combout\ $end
$var wire 1 t \inst2|edoPresente[0]~9_combout\ $end
$var wire 1 u \inst5|Mux3~0_combout\ $end
$var wire 1 v \inst8|selector[1]~1_combout\ $end
$var wire 1 w \inst2|edoPresente[1]~10_combout\ $end
$var wire 1 x \inst5|Mux7~0_combout\ $end
$var wire 1 y \inst1|Add0~1_combout\ $end
$var wire 1 z \inst2|edoPresente[1]~11_combout\ $end
$var wire 1 { \inst5|Mux1~0_combout\ $end
$var wire 1 | \inst5|Mux0~0_combout\ $end
$var wire 1 } \inst7~0_combout\ $end
$var wire 1 ~ \inst7~1_combout\ $end
$var wire 1 !! \inst2|edoPresente[2]~13_combout\ $end
$var wire 1 "! \inst5|Mux6~0_combout\ $end
$var wire 1 #! \inst1|Add0~2_combout\ $end
$var wire 1 $! \inst2|edoPresente[2]~12_combout\ $end
$var wire 1 %! \inst2|edoPresente[2]~15_combout\ $end
$var wire 1 &! \inst5|Mux4~0_combout\ $end
$var wire 1 '! \inst2|Equal0~0_combout\ $end
$var wire 1 (! \inst2|edoPresente[3]~6_combout\ $end
$var wire 1 )! \inst5|Mux5~0_combout\ $end
$var wire 1 *! \inst1|Add0~0_combout\ $end
$var wire 1 +! \inst2|edoPresente[3]~4_combout\ $end
$var wire 1 ,! \inst2|edoPresente[3]~7_combout\ $end
$var wire 1 -! \sw_sal~input_o\ $end
$var wire 1 .! \inst9|salida1[3]~0_combout\ $end
$var wire 1 /! \inst9|salida1[2]~1_combout\ $end
$var wire 1 0! \inst9|salida1[1]~2_combout\ $end
$var wire 1 1! \inst9|salida1[0]~3_combout\ $end
$var wire 1 2! \inst9|salida2[4]~0_combout\ $end
$var wire 1 3! \inst5|Mux9~0_combout\ $end
$var wire 1 4! \inst9|salida2[3]~1_combout\ $end
$var wire 1 5! \inst5|Mux10~0_combout\ $end
$var wire 1 6! \inst9|salida2[2]~2_combout\ $end
$var wire 1 7! \inst5|Mux11~0_combout\ $end
$var wire 1 8! \inst9|salida2[1]~3_combout\ $end
$var wire 1 9! \inst5|Mux12~0_combout\ $end
$var wire 1 :! \inst9|salida2[0]~4_combout\ $end
$var wire 1 ;! \inst|edoPresente\ [3] $end
$var wire 1 <! \inst|edoPresente\ [2] $end
$var wire 1 =! \inst|edoPresente\ [1] $end
$var wire 1 >! \inst|edoPresente\ [0] $end
$var wire 1 ?! \inst9|ALT_INV_salida2[0]~4_combout\ $end
$upscope $end
$upscope $end
$enddefinitions $end
#0
$dumpvars
0!
0"
1,
1-
10
11
02
13
x4
15
16
17
18
19
1:
1?
0@
1A
1B
0C
1F
0Z
z[
z\
z]
x^
x_
x`
xa
0b
xc
xd
xe
xf
0g
1h
0i
1j
1k
0l
1m
xn
xo
0p
0q
xr
xs
xt
xu
xv
xw
xx
xy
xz
x{
x|
x}
x~
0!!
x"!
x#!
x$!
x%!
x&!
x'!
1(!
x)!
x*!
x+!
x,!
1-!
x.!
x/!
x0!
x1!
02!
x3!
x4!
x5!
x6!
x7!
x8!
x9!
x:!
x?!
0.
1/
x;
x<
x=
x>
0D
1E
0G
xH
xI
xJ
xK
0;!
0<!
0=!
0>!
1V
1W
1X
0Y
0L
0M
0N
0O
0P
0Q
0R
0S
0T
0U
x#
x$
x%
x&
0'
x(
x)
x*
x+
$end
#5000
1!
1@
1p
1Y
1q
x>!
x=!
x<!
x;!
#10000
0!
0@
0p
0Y
0q
#15000
1!
1@
1p
1Y
1q
#20000
0!
0@
0p
0Y
0q
#25000
1!
1@
1p
1Y
1q
#30000
0!
0@
0p
0Y
0q
#35000
1!
1@
1p
1Y
1q
#40000
0!
0@
0p
0Y
0q
#45000
1!
1@
1p
1Y
1q
#50000
0!
0@
0p
0Y
0q
#55000
1!
1@
1p
1Y
1q
#60000
0!
0@
0p
0Y
0q
#65000
1!
1@
1p
1Y
1q
#70000
0!
0@
0p
0Y
0q
#75000
1!
1@
1p
1Y
1q
#80000
0!
0@
0p
0Y
0q
#85000
1!
1@
1p
1Y
1q
#90000
0!
0@
0p
0Y
0q
#95000
1!
1@
1p
1Y
1q
#100000
0!
0@
0p
0Y
0q
#105000
1!
1@
1p
1Y
1q
#110000
0!
0@
0p
0Y
0q
#115000
1!
1@
1p
1Y
1q
#120000
0!
0@
0p
0Y
0q
#125000
1!
1@
1p
1Y
1q
#130000
0!
0@
0p
0Y
0q
#135000
1!
1@
1p
1Y
1q
#140000
0!
0@
0p
0Y
0q
#145000
1!
1@
1p
1Y
1q
#150000
0!
0@
0p
0Y
0q
#155000
1!
1@
1p
1Y
1q
#160000
0!
0@
0p
0Y
0q
#165000
1!
1@
1p
1Y
1q
#170000
0!
0@
0p
0Y
0q
#175000
1!
1@
1p
1Y
1q
#180000
0!
0@
0p
0Y
0q
#185000
1!
1@
1p
1Y
1q
#190000
0!
0@
0p
0Y
0q
#195000
1!
1@
1p
1Y
1q
#200000
0!
0@
0p
0Y
0q
#205000
1!
1@
1p
1Y
1q
#210000
0!
0@
0p
0Y
0q
#215000
1!
1@
1p
1Y
1q
#220000
0!
0@
0p
0Y
0q
#225000
1!
1@
1p
1Y
1q
#230000
0!
0@
0p
0Y
0q
#235000
1!
1@
1p
1Y
1q
#240000
0!
0@
0p
0Y
0q
#245000
1!
1@
1p
1Y
1q
#250000
0!
0@
0p
0Y
0q
#255000
1!
1@
1p
1Y
1q
#260000
0!
0@
0p
0Y
0q
#265000
1!
1@
1p
1Y
1q
#270000
0!
0@
0p
0Y
0q
#275000
1!
1@
1p
1Y
1q
#280000
0!
0@
0p
0Y
0q
#285000
1!
1@
1p
1Y
1q
#290000
0!
0@
0p
0Y
0q
#295000
1!
1@
1p
1Y
1q
#300000
0!
0@
0p
0Y
0q
#305000
1!
1@
1p
1Y
1q
#310000
0!
0@
0p
0Y
0q
#315000
1!
1@
1p
1Y
1q
#320000
0!
0@
0p
0Y
0q
#325000
1!
1@
1p
1Y
1q
#330000
0!
0@
0p
0Y
0q
#335000
1!
1@
1p
1Y
1q
#340000
0!
0@
0p
0Y
0q
#345000
1!
1@
1p
1Y
1q
#350000
0!
0@
0p
0Y
0q
#355000
1!
1@
1p
1Y
1q
#360000
0!
0@
0p
0Y
0q
#365000
1!
1@
1p
1Y
1q
#370000
0!
0@
0p
0Y
0q
#375000
1!
1@
1p
1Y
1q
#380000
0!
0@
0p
0Y
0q
#385000
1!
1@
1p
1Y
1q
#390000
0!
0@
0p
0Y
0q
#395000
1!
1@
1p
1Y
1q
#400000
0!
0@
0p
0Y
0q
#405000
1!
1@
1p
1Y
1q
#410000
0!
0@
0p
0Y
0q
#415000
1!
1@
1p
1Y
1q
#420000
0!
0@
0p
0Y
0q
#425000
1!
1@
1p
1Y
1q
#430000
0!
0@
0p
0Y
0q
#435000
1!
1@
1p
1Y
1q
#440000
0!
0@
0p
0Y
0q
#445000
1!
1@
1p
1Y
1q
#450000
0!
0@
0p
0Y
0q
#455000
1!
1@
1p
1Y
1q
#460000
0!
0@
0p
0Y
0q
#465000
1!
1@
1p
1Y
1q
#470000
0!
0@
0p
0Y
0q
#475000
1!
1@
1p
1Y
1q
#480000
0!
0@
0p
0Y
0q
#485000
1!
1@
1p
1Y
1q
#490000
0!
0@
0p
0Y
0q
#495000
1!
1@
1p
1Y
1q
#500000
0!
0@
0p
0Y
0q
#505000
1!
1@
1p
1Y
1q
#510000
0!
0@
0p
0Y
0q
#515000
1!
1@
1p
1Y
1q
#520000
0!
0@
0p
0Y
0q
#525000
1!
1@
1p
1Y
1q
#530000
0!
0@
0p
0Y
0q
#535000
1!
1@
1p
1Y
1q
#540000
0!
0@
0p
0Y
0q
#545000
1!
1@
1p
1Y
1q
#550000
0!
0@
0p
0Y
0q
#555000
1!
1@
1p
1Y
1q
#560000
0!
0@
0p
0Y
0q
#565000
1!
1@
1p
1Y
1q
#570000
0!
0@
0p
0Y
0q
#575000
1!
1@
1p
1Y
1q
#580000
0!
0@
0p
0Y
0q
#585000
1!
1@
1p
1Y
1q
#590000
0!
0@
0p
0Y
0q
#595000
1!
1@
1p
1Y
1q
#600000
0!
0@
0p
0Y
0q
#605000
1!
1@
1p
1Y
1q
#610000
0!
0@
0p
0Y
0q
#615000
1!
1@
1p
1Y
1q
#620000
0!
0@
0p
0Y
0q
#625000
1!
1@
1p
1Y
1q
#630000
0!
0@
0p
0Y
0q
#635000
1!
1@
1p
1Y
1q
#640000
0!
0@
0p
0Y
0q
#645000
1!
1@
1p
1Y
1q
#650000
0!
0@
0p
0Y
0q
#655000
1!
1@
1p
1Y
1q
#660000
0!
0@
0p
0Y
0q
#665000
1!
1@
1p
1Y
1q
#670000
0!
0@
0p
0Y
0q
#675000
1!
1@
1p
1Y
1q
#680000
0!
0@
0p
0Y
0q
#685000
1!
1@
1p
1Y
1q
#690000
0!
0@
0p
0Y
0q
#695000
1!
1@
1p
1Y
1q
#700000
0!
0@
0p
0Y
0q
#705000
1!
1@
1p
1Y
1q
#710000
0!
0@
0p
0Y
0q
#715000
1!
1@
1p
1Y
1q
#720000
0!
0@
0p
0Y
0q
#725000
1!
1@
1p
1Y
1q
#730000
0!
0@
0p
0Y
0q
#735000
1!
1@
1p
1Y
1q
#740000
0!
0@
0p
0Y
0q
#745000
1!
1@
1p
1Y
1q
#750000
0!
0@
0p
0Y
0q
#755000
1!
1@
1p
1Y
1q
#760000
0!
0@
0p
0Y
0q
#765000
1!
1@
1p
1Y
1q
#770000
0!
0@
0p
0Y
0q
#775000
1!
1@
1p
1Y
1q
#780000
0!
0@
0p
0Y
0q
#785000
1!
1@
1p
1Y
1q
#790000
0!
0@
0p
0Y
0q
#795000
1!
1@
1p
1Y
1q
#800000
0!
0@
0p
0Y
0q
#805000
1!
1@
1p
1Y
1q
#810000
0!
0@
0p
0Y
0q
#815000
1!
1@
1p
1Y
1q
#820000
0!
0@
0p
0Y
0q
#825000
1!
1@
1p
1Y
1q
#830000
0!
0@
0p
0Y
0q
#835000
1!
1@
1p
1Y
1q
#840000
0!
0@
0p
0Y
0q
#845000
1!
1@
1p
1Y
1q
#850000
0!
0@
0p
0Y
0q
#855000
1!
1@
1p
1Y
1q
#860000
0!
0@
0p
0Y
0q
#865000
1!
1@
1p
1Y
1q
#870000
0!
0@
0p
0Y
0q
#875000
1!
1@
1p
1Y
1q
#880000
0!
0@
0p
0Y
0q
#885000
1!
1@
1p
1Y
1q
#890000
0!
0@
0p
0Y
0q
#895000
1!
1@
1p
1Y
1q
#900000
0!
0@
0p
0Y
0q
#905000
1!
1@
1p
1Y
1q
#910000
0!
0@
0p
0Y
0q
#915000
1!
1@
1p
1Y
1q
#920000
0!
0@
0p
0Y
0q
#925000
1!
1@
1p
1Y
1q
#930000
0!
0@
0p
0Y
0q
#935000
1!
1@
1p
1Y
1q
#940000
0!
0@
0p
0Y
0q
#945000
1!
1@
1p
1Y
1q
#950000
0!
0@
0p
0Y
0q
#955000
1!
1@
1p
1Y
1q
#960000
0!
0@
0p
0Y
0q
#965000
1!
1@
1p
1Y
1q
#970000
0!
0@
0p
0Y
0q
#975000
1!
1@
1p
1Y
1q
#980000
0!
0@
0p
0Y
0q
#985000
1!
1@
1p
1Y
1q
#990000
0!
0@
0p
0Y
0q
#995000
1!
1@
1p
1Y
1q
