p2/simulation/qsim/practica2.msim.vcd
$comment
	File created using the following command:
		vcd file practica2.msim.vcd -direction
$end
$date
	Wed Aug 21 04:04:51 2019
$end
$version
	ModelSim Version 10.5b
$end
$timescale
	1ps
$end

$scope module practica2_vlg_vec_tst $end
$var reg 1 ! clk $end
$var reg 1 " E $end
$var wire 1 # S $end

$scope module i1 $end
$var wire 1 $ gnd $end
$var wire 1 % vcc $end
$var wire 1 & unknown $end
$var tri1 1 ' devclrn $end
$var tri1 1 ( devpor $end
$var tri1 1 ) devoe $end
$var wire 1 * ~QUARTUS_CREATED_GND~I_combout $end
$var wire 1 + ~QUARTUS_CREATED_UNVM~~busy $end
$var wire 1 , ~QUARTUS_CREATED_ADC1~~eoc $end
$var wire 1 - S~output_o $end
$var wire 1 . clk~input_o $end
$var wire 1 / clk~inputclkctrl_outclk $end
$var wire 1 0 E~input_o $end
$var wire 1 1 inst5~0_combout $end
$var wire 1 2 D1~q $end
$var wire 1 3 inst6~0_combout $end
$var wire 1 4 D0~q $end
$var wire 1 5 inst7~combout $end
$upscope $end
$upscope $end
$enddefinitions $end
#0
$dumpvars
0!
1"
0#
0$
1%
x&
1'
1(
1)
0*
z+
z,
0-
0.
0/
10
01
02
13
04
05
$end
#25000
1!
1.
1/
14
03
11
#50000
0!
0.
0/
#75000
1!
1.
1/
04
12
13
#100000
0!
0.
0/
#125000
1!
1.
1/
14
15
1-
1#
#150000
0!
0.
0/
#175000
1!
1.
1/
#200000
0!
0.
0/
#225000
1!
1.
1/
#250000
0!
0.
0/
#275000
1!
1.
1/
#300000
0!
0.
0/
#325000
1!
1.
1/
#350000
0!
0.
0/
#375000
1!
1.
1/
#400000
0!
0.
0/
#425000
1!
1.
1/
#450000
0!
0.
0/
#475000
1!
1.
1/
#500000
0!
0.
0/
#525000
1!
1.
1/
#550000
0!
0.
0/
#575000
1!
1.
1/
#600000
0!
0.
0/
#625000
1!
1.
1/
#650000
0!
0.
0/
#675000
1!
1.
1/
#700000
0!
0.
0/
#725000
1!
1.
1/
#750000
0!
0.
0/
#775000
1!
1.
1/
#800000
0!
0.
0/
#825000
1!
1.
1/
#850000
0!
0.
0/
#875000
1!
1.
1/
#900000
0!
0.
0/
#925000
1!
1.
1/
#950000
0!
0.
0/
#975000
1!
1.
1/
